{
    "desiredDpsGaugeVisible": true,
    "desiredDpsGraphVisible": true,
    "desiredHpsGaugeVisible": true,
    "desiredHpsGraphVisible": true,
    "dpsGaugeTargetValue": 0.1,
    "hpsGaugeTargetValue": 0.1,
    "maxDamageImpact": 49,
    "maxHealingImpact": 40,
    "showSessionValues": false
}
